﻿National Code;Label of national code (TO BE DISPLAYED);Extended Customs procedures authorizing this national codeEx : 1000, 4000, 8000…;English translation of labels;
000;ເສຍ ຫລື ຍົກເວັ້ນຄ່າພາສີ ແລະ ພັນທະອື່ນໆ ຕາມເງື່ອນໄຂປົກກະຕິ;1000, 1040, 1100, 2000, 2100, 3045, 3050, 3051, 3052, 3055, 3071,3075, 3082, 3085, 4000, 4050, 4051, 4052, 4055, 4056, 4071, 4075, 4081, 4085, 4400, 4451, 4455, 5000, 5081, 5085, 5100, 5200, 5281, 5600, 5681, 5685, 5700, 5781, 5785, 6020, 6021, 6025, 7100, 7171, 7175, 7200, 7271, 7272, 8100, 8200, 8300, 8340;Customs payment and other obligatory fees are charged or exempted based on regular conditions;
100;ຍົກເວັ້ນຄ່າຊັກພິເສດ (ສະເພາະການສົ່ງອອກ EX1 “10”);1000;Extra checking fee is exempted (for the original code “10”);
400;ເສຍພາສີຕາມອັດຕາເດັດຖານ ຫລືຕາມສັນຍາລະຫວ່າງກົມພາສີແລະບໍລິສັດ;4000, 4081, 4085;Standard customs payment or accordance with agreement between Customs Department and Company;
410;ເສຍພາສີຫລຸດຜ່ອນຕາມນະໂຍບາຍສົ່ງເສີມການລົງທຶນ;4000, 4050, 4051, 4055, 4081, 4085;Customs reduction is implemented based on investment promotion policy;
415;ເສຍພາສີ, ຍົກເວັ້ນອາກອນ ແລະ ພັນທະອື່ນໆ ຕາມກົດໝາຍສົ່ງເສີມການລົງທຶນ;4000, 4050, 4051, 4052, 4055, 4071, 4075, 4081, 4085;Customs payment, exemption from taxes and other obligatory fee is implemented based on specific investment policy;
420;ເສຍພາສີຫລຸດຜ່ອນຕາມນະໂຍບາຍລັດທະບານ;4000, 4081;Reduce Customs payment according to the government policy;
425;ເສຍພາສີ 50% ອາກອນ ແລະ ພັນທະອື່ນໆຕາມລະບຽບການ ຕາມກົດໝາຍສົ່ງເສີມການລົງທຶນ;4000, 4050, 4051, 4052, 4055, 4071, 4075, 4081, 4085;Customs payment is charged 50%, taxes and other obligatory fees are implemented based on the regulations of investment promotion policy;
430;ຍົກເວັ້ນອາກອນມູນຄ່າເພີ້ມ, ເສຍພາສີ ແລະ ພັນທະອື່ນໆ ຕາມລະບຽບການ ຕາມກົດໝາຍ                   ສົ່ງເສີມການລົງທຶນ;4000;The exemption from VAT, taxes and other obligatory fees is implemented based on the regulations of Investment promotion Law;
435;ເສຍສະເພາະອາກອນມູນຄ່າເພີ້ມ, ຍົກເວັ້ນຄ່າພາສີ ແລະ ພັນທະອື່ນໆ ຕາມກົດໝາຍສົ່ງເສີມ           ການລົງທຶນ;4000, 4050, 4051, 4052, 4055, 4071, 4075, 4081, 4085;VAT is charged and the exemption from customs and other obligatory fees is implemented based on Investment promotion Law;
440;ຍົກເວັ້ນຄ່າພາສີ, ເສຍອາກອນ ແລະ ພັນທະອື່ນໆ ຕາມກົດໝາຍສົ່ງເສີມການລົງທຶນ;4000, 4081, 4085;Customs payment is exempted, tax and other obligatory fees are implemented based on Investment promotion Law;
445;ເສຍ50% ຂອງພາສີອາກອນ ແລະ ພັນທະອື່ນໆ ຕາມກົດໝາຍສົ່ງເສີມການລົງທຶນ;4000, 4050, 4051, 4052, 4055, 4071, 4075, 4081, 4085;Customs, tax, and other obligatory fees payments are charged 50% based on Investment promotion Law;
450;ການນຳເຂົ້າເພື່ອການສົ່ງອອກ (ສະເພາະລະຫັດເຂົ້າ 45);4500, 4581, 8200;Import to export (for original code “45”);
460;ຍົກເວັ້ນຄ່າພາສີ-ອາກອນ ສະເພາະນັກການທູດ ແລະ ອົງການຈັດຕັ້ງສາກົນ;4000, 4081, 4085;Ambassadors and international organizations are exempt from customs and tax payments;
470;ຍົກເວັ້ນຄ່າພາສີ-ອາກອນ ສຳຫລັບໂຄງການຊ່ວຍເຫລືອລ້າ ແລະ ກູ້ຢືມຂອງລັດຖະບານ;4000, 4050, 4081, 4085;Development aid and the government’s loans are exempt from customs and tax payments;
480;ຍົກເວັ້ນຄ່າພາສີ-ອາກອນສຳຫລັບໂຄງການລົງທຶນຂອງລັດຖະບານ;4000, 4050, 4081, 4085;Government’s investment projects are exempt from customs and tax payments;
481;ຍົກເວັ້ນຄ່າພາສີ-ອາກອນ ສຳຫລັບໂຄງການລົງທຶນຂອງເອກະຊົນ;4000;Private investment projects are exempt from customs and tax payments;
490;ຍົກເວັ້ນຄ່າພາສີ-ອາກອນ ຕາມນະໂຍບາຍຂັ້ນເທິງ;4000, 4050, 4051, 4055, 4081, 4085;The exemption from customs and tax payment are implemented based on the government policy;
500;ການຂົນສົ່ງຜ່ານແດນສາກົນ;4700;International Transport;
600;ຍົກເວັ້ນຄ່າພາສີອາກອນ (ສະເພາະການນຳເຂົ້າຄືນ “60”) ຂ້າງເທິງ;4000, 6020, 6025;The exemption from customs and tax payment (for re-import “60”);